tb/fifo_tb.vcd
$date
	Fri Jan 19 21:09:54 2024
$end
$version
	Icarus Verilog
$end
$timescale
	1ps
$end
$scope module fifo_tb $end
$var reg 1 ! clk $end
$var reg 32 " ram0 [31:0] $end
$var reg 32 # ram1 [31:0] $end
$var reg 32 $ ram2 [31:0] $end
$var reg 32 % ram3 [31:0] $end
$var reg 32 & ram4 [31:0] $end
$var reg 32 ' ram5 [31:0] $end
$var reg 32 ( ram6 [31:0] $end
$var reg 32 ) ram7 [31:0] $end
$scope module dut $end
$var wire 32 * io_read_bits [31:0] $end
$var wire 1 + io_read_valid $end
$var wire 1 , io_write_ready $end
$var wire 32 - ram_MPORT_data [31:0] $end
$var wire 1 . ram_MPORT_en $end
$var wire 1 / ram_MPORT_mask $end
$var wire 32 0 ram_rd_bits_MPORT_data [31:0] $end
$var wire 1 1 ram_rd_bits_MPORT_en $end
$var wire 1 2 rd_en $end
$var wire 1 3 wr_en $end
$var wire 1 4 wr_full $end
$var wire 1 5 rd_empty $end
$var wire 3 6 ram_rd_bits_MPORT_addr [2:0] $end
$var wire 3 7 ram_MPORT_addr [2:0] $end
$var wire 1 8 io_write_valid $end
$var wire 32 9 io_write_bits [31:0] $end
$var wire 1 : io_wr_rst $end
$var wire 1 ; io_wr_clk $end
$var wire 1 < io_read_ready $end
$var wire 1 = io_rd_rst $end
$var wire 1 > io_rd_clk $end
$var wire 4 ? _wr_ptr_T_1 [3:0] $end
$var wire 4 @ _rd_ptr_T_1 [3:0] $end
$var reg 32 A rd_bits [31:0] $end
$var reg 4 B rd_ptr [3:0] $end
$var reg 4 C rd_ptr_w [3:0] $end
$var reg 4 D rd_ptr_w_ptr_1 [3:0] $end
$var reg 4 E wr_ptr [3:0] $end
$var reg 4 F wr_ptr_r [3:0] $end
$var reg 4 G wr_ptr_r_ptr_1 [3:0] $end
$upscope $end
$scope module tb_if $end
$var wire 1 ! clk $end
$var wire 32 H rd_bits [31:0] $end
$var wire 1 + rd_valid $end
$var wire 1 , wr_ready $end
$var parameter 32 I width $end
$var reg 1 > rd_clk $end
$var reg 1 < rd_ready $end
$var reg 1 = rd_rst $end
$var reg 32 J wr_bits [31:0] $end
$var reg 1 ; wr_clk $end
$var reg 1 : wr_rst $end
$var reg 1 8 wr_valid $end
$upscope $end
$scope task rdOnly $end
$scope begin $ivl_for_loop0 $end
$var integer 32 K i [31:0] $end
$upscope $end
$upscope $end
$scope task wrOnly $end
$scope begin $ivl_for_loop1 $end
$var integer 32 L i [31:0] $end
$upscope $end
$upscope $end
$upscope $end
$enddefinitions $end
$comment Show the parameter values. $end
$dumpall
b100000 I
$end
#0
$dumpvars
b0 L
b0 K
bx J
bx H
bx G
bx F
bx E
bx D
bx C
bx B
bx A
bx @
bx ?
0>
0=
x<
0;
0:
bx 9
x8
bx 7
bx 6
x5
x4
x3
x2
x1
bx 0
1/
x.
bx -
x,
x+
bx *
b0 )
b0 (
b0 '
b0 &
b0 %
b0 $
b0 #
b0 "
0!
$end
#5000
1:
1=
#10000
b0 7
b0 6
b1 ?
b0 E
b0 *
b0 H
b0 A
b1 @
b0 B
0.
03
b11000000100010010101111010000001 -
b11000000100010010101111010000001 9
b11000000100010010101111010000001 J
08
1;
1>
#20000
0;
0>
#30000
b0 D
b0 G
1;
1>
#37000
x.
x3
b10110001111100000101011001100011 -
b10110001111100000101011001100011 9
b10110001111100000101011001100011 J
18
b1 L
#40000
0;
0>
#50000
1.
13
1,
04
01
02
0+
b0 C
15
b0 F
1;
1>
#55000
0:
0=
#57000
b1000110110111111001100110001101 -
b1000110110111111001100110001101 9
b1000110110111111001100110001101 J
b10 L
#60000
0;
0>
#70000
b1 7
b10 ?
b1 E
b1000110110111111001100110001101 0
1;
1>
#77000
b10001001001101110101001000010010 -
b10001001001101110101001000010010 9
b10001001001101110101001000010010 J
b11 L
#80000
0;
0>
b1000110110111111001100110001101 "
#90000
b10 7
b11 ?
b10 E
b1 G
1;
1>
#97000
b110110101111100110100001101 -
b110110101111100110100001101 9
b110110101111100110100001101 J
b100 L
#100000
0;
0>
b10001001001101110101001000010010 #
#110000
x1
x2
b11 7
1+
b100 ?
b11 E
05
b1 F
b10 G
1;
1>
#117000
0.
03
b11110100011011100110100111101 -
b11110100011011100110100111101 9
b11110100011011100110100111101 J
08
b101 L
#120000
0;
0>
b110110101111100110100001101 $
#130000
b10 F
b11 G
1;
1>
#137000
1.
13
b1000110001011011111011110001100 -
b1000110001011011111011110001100 9
b1000110001011011111011110001100 J
18
b110 L
#140000
0;
0>
#150000
b100 7
b101 ?
b100 E
b11 F
1;
1>
#157000
b11100011001101110010010011000110 -
b11100011001101110010010011000110 9
b11100011001101110010010011000110 J
b111 L
#160000
0;
0>
b1000110001011011111011110001100 %
#170000
b101 7
b110 ?
b101 E
b100 G
1;
1>
#177000
b11010101000100111101001010101010 -
b11010101000100111101001010101010 9
b11010101000100111101001010101010 J
b1000 L
#180000
0;
0>
b11100011001101110010010011000110 &
#190000
b110 7
b111 ?
b110 E
b100 F
b101 G
1;
1>
#197000
b10111011110100100111001001110111 -
b10111011110100100111001001110111 9
b10111011110100100111001001110111 J
b1001 L
#200000
0;
0>
b11010101000100111101001010101010 '
#210000
b111 7
b1000 ?
b111 E
b101 F
b110 G
1;
1>
#217000
0.
03
b1000111111011001101101110001111 -
b1000111111011001101101110001111 9
b1000111111011001101101110001111 J
08
b1010 L
#220000
0;
0>
b10111011110100100111001001110111 (
#230000
b110 F
b111 G
1;
1>
#237000
b11100111011101101001011011001110 -
b11100111011101101001011011001110 9
b11100111011101101001011011001110 J
b1011 L
#240000
0;
0>
#250000
b111 F
1;
1>
#257000
b11100010110010100100111011000101 -
b11100010110010100100111011000101 9
b11100010110010100100111011000101 J
b1100 L
#260000
0;
0>
#270000
1;
1>
#277000
b11011110100011100010100010111101 -
b11011110100011100010100010111101 9
b11011110100011100010100010111101 J
b1101 L
#280000
0;
0>
#290000
1;
1>
#297000
1.
13
b10110010101001110010011001100101 -
b10110010101001110010011001100101 9
b10110010101001110010011001100101 J
18
b1110 L
#300000
0;
0>
#310000
0.
03
0,
14
b0 7
b1001 ?
b1000 E
1;
1>
#317000
b101011100111000011100001010 -
b101011100111000011100001010 9
b101011100111000011100001010 J
b1111 L
#320000
0;
0>
b10110010101001110010011001100101 )
#330000
b1000 G
1;
1>
#337000
b10000011001000010000100100000 -
b10000011001000010000100100000 9
b10000011001000010000100100000 J
08
b10000 L
#340000
0;
0>
#350000
b1000 F
1;
1>
#357000
b11001110110011001100110010011101 -
b11001110110011001100110010011101 9
b11001110110011001100110010011101 J
b10001 L
#360000
0;
0>
#370000
1;
1>
#377000
b10001001100000111011100000010011 -
b10001001100000111011100000010011 9
b10001001100000111011100000010011 J
b10010 L
#380000
0;
0>
#390000
1;
1>
#397000
b10101001101001111101011001010011 -
b10101001101001111101011001010011 9
b10101001101001111101011001010011 J
18
b10011 L
#400000
0;
0>
#410000
1;
1>
#417000
b11101010101001100010101011010101 -
b11101010101001100010101011010101 9
b11101010101001100010101011010101 J
b10100 L
#420000
0;
0>
#430000
1;
1>
#437000
b11010111010101100011111010101110 -
b11010111010101100011111010101110 9
b11010111010101100011111010101110 J
08
b10101 L
#440000
0;
0>
#450000
1;
1>
#457000
b11100111110001010111001011001111 -
b11100111110001010111001011001111 9
b11100111110001010111001011001111 J
18
b10110 L
#460000
0;
0>
#470000
1;
1>
#477000
b101000010010110010100001010 -
b101000010010110010100001010 9
b101000010010110010100001010 J
b10111 L
#480000
0;
0>
#490000
1;
1>
#497000
b10011110001100010100110000111100 -
b10011110001100010100110000111100 9
b10011110001100010100110000111100 J
08
b11000 L
#500000
0;
0>
#510000
1;
1>
#517000
b1000101001011100110000110001010 -
b1000101001011100110000110001010 9
b1000101001011100110000110001010 J
b11001 L
#520000
0;
0>
#530000
1;
1>
#537000
b11101100010010110011010011011000 -
b11101100010010110011010011011000 9
b11101100010010110011010011011000 J
18
b11010 L
#540000
0;
0>
#550000
1;
1>
#557000
b11000100100010100001001010001001 -
b11000100100010100001001010001001 9
b11000100100010100001001010001001 J
08
b11011 L
#560000
0;
0>
#570000
1;
1>
#577000
b1011011000000100110010110110110 -
b1011011000000100110010110110110 9
b1011011000000100110010110110110 J
18
b11100 L
#580000
0;
0>
#590000
1;
1>
#597000
b1010111000101010001001110101110 -
b1010111000101010001001110101110 9
b1010111000101010001001110101110 J
08
b11101 L
#600000
0;
0>
#610000
1;
1>
#617000
b10101000011111101110100101010 -
b10101000011111101110100101010 9
b10101000011111101110100101010 J
b11110 L
#620000
0;
0>
#630000
1;
1>
#637000
b10111000100101111011111001110001 -
b10111000100101111011111001110001 9
b10111000100101111011111001110001 J
18
b11111 L
#640000
0;
0>
#650000
1;
1>
#657000
11
12
1<
b100000 L
#660000
0;
0>
#670000
b10001001001101110101001000010010 0
b1 6
b1000110110111111001100110001101 *
b1000110110111111001100110001101 H
b1000110110111111001100110001101 A
b10 @
b1 B
1;
1>
#672000
b1 K
#680000
0;
0>
#690000
b110110101111100110100001101 0
b10 6
b1 D
b10001001001101110101001000010010 *
b10001001001101110101001000010010 H
b10001001001101110101001000010010 A
b11 @
b10 B
1;
1>
#692000
b10 K
#700000
0;
0>
#710000
1.
13
1,
04
b1000110001011011111011110001100 0
b11 6
b1 C
b10 D
b110110101111100110100001101 *
b110110101111100110100001101 H
b110110101111100110100001101 A
b100 @
b11 B
1;
1>
#712000
01
02
0<
b11 K
#720000
0;
0>
#730000
b1 7
b10 C
b11 D
b1010 ?
b1001 E
1;
1>
#732000
b100 K
#740000
0;
0>
b10111000100101111011111001110001 "
#750000
b10 7
b11 C
b1011 ?
b1010 E
b1001 G
1;
1>
#752000
11
12
1<
b101 K
#760000
0;
0>
b10111000100101111011111001110001 #
#770000
0.
03
0,
14
b11 7
b11100011001101110010010011000110 0
b100 6
b1100 ?
b1011 E
b1000110001011011111011110001100 *
b1000110001011011111011110001100 H
b1000110001011011111011110001100 A
b1001 F
b1010 G
b101 @
b100 B
1;
1>
#772000
b110 K
#780000
0;
0>
b10111000100101111011111001110001 $
#790000
b11010101000100111101001010101010 0
b101 6
b100 D
b11100011001101110010010011000110 *
b11100011001101110010010011000110 H
b11100011001101110010010011000110 A
b1010 F
b1011 G
b110 @
b101 B
1;
1>
#792000
b111 K
#800000
0;
0>
#810000
1.
13
1,
04
b10111011110100100111001001110111 0
b110 6
b100 C
b101 D
b11010101000100111101001010101010 *
b11010101000100111101001010101010 H
b11010101000100111101001010101010 A
b1011 F
b111 @
b110 B
1;
1>
#812000
01
02
0<
b1000 K
#820000
0;
0>
#830000
b100 7
b101 C
b110 D
b1101 ?
b1100 E
1;
1>
#832000
b1001 K
#840000
0;
0>
b10111000100101111011111001110001 %
#850000
b101 7
b110 C
b1110 ?
b1101 E
b1100 G
1;
1>
#852000
11
12
1<
b1010 K
#860000
0;
0>
b10111000100101111011111001110001 &
#870000
0.
03
0,
14
b110 7
b10110010101001110010011001100101 0
b111 6
b1111 ?
b1110 E
b10111011110100100111001001110111 *
b10111011110100100111001001110111 H
b10111011110100100111001001110111 A
b1100 F
b1101 G
b1000 @
b111 B
1;
1>
#872000
b1011 K
#880000
0;
0>
b10111000100101111011111001110001 '
#890000
b10111000100101111011111001110001 0
b0 6
b111 D
b10110010101001110010011001100101 *
b10110010101001110010011001100101 H
b10110010101001110010011001100101 A
b1101 F
b1110 G
b1001 @
b1000 B
1;
1>
#892000
01
02
0<
b1100 K
#900000
0;
0>
#910000
1.
13
1,
04
b111 C
b1000 D
b1110 F
1;
1>
#912000
11
12
1<
b1101 K
#920000
0;
0>
#930000
b111 7
b1 6
b1000 C
b0 ?
b1111 E
b10111000100101111011111001110001 *
b10111000100101111011111001110001 H
b10111000100101111011111001110001 A
b1010 @
b1001 B
1;
1>
#932000
b1110 K
#940000
0;
0>
b10111000100101111011111001110001 (
#950000
0.
03
0,
14
b0 7
b10 6
b1001 D
b1 ?
b0 E
b1111 G
b1011 @
b1010 B
1;
1>
#952000
01
02
0<
b1111 K
#960000
0;
0>
b10111000100101111011111001110001 )
#970000
1.
13
1,
04
b1001 C
b1010 D
b1111 F
b0 G
1;
1>
#972000
11
12
1<
b10000 K
#980000
0;
0>
#990000
b1 7
b11 6
b1010 C
b10 ?
b1 E
b0 F
b1100 @
b1011 B
1;
1>
#992000
b10001 K
#1000000
0;
0>
#1010000
0.
03
0,
14
b10 7
b100 6
b1011 D
b11 ?
b10 E
b1 G
b1101 @
b1100 B
1;
1>
#1012000
b10010 K
#1020000
0;
0>
#1030000
1.
13
1,
04
b101 6
b1011 C
b1100 D
b1 F
b10 G
b1110 @
b1101 B
1;
1>
#1032000
01
02
0<
b10011 K
#1040000
0;
0>
#1050000
b11 7
b1100 C
b1101 D
b100 ?
b11 E
b10 F
1;
1>
#1052000
11
12
1<
b10100 K
#1060000
0;
0>
#1070000
b100 7
b110 6
b1101 C
b101 ?
b100 E
b11 G
b1111 @
b1110 B
1;
1>
#1072000
b10101 K
#1080000
0;
0>
#1090000
0.
03
0,
14
b101 7
b111 6
b1110 D
b110 ?
b101 E
b11 F
b100 G
b0 @
b1111 B
1;
1>
#1092000
01
02
0<
b10110 K
#1100000
0;
0>
#1110000
1.
13
1,
04
b1110 C
b1111 D
b100 F
b101 G
1;
1>
#1112000
b10111 K
#1120000
0;
0>
#1130000
b110 7
b1111 C
b111 ?
b110 E
b101 F
1;
1>
#1132000
b11000 K
#1140000
0;
0>
#1150000
0.
03
0,
14
b111 7
b1000 ?
b111 E
b110 G
1;
1>
#1152000
b11001 K
#1160000
0;
0>
#1170000
b110 F
b111 G
1;
1>
#1172000
11
12
1<
b11010 K
#1180000
0;
0>
#1190000
b0 6
b111 F
b1 @
b0 B
1;
1>
#1192000
b11011 K
#1200000
0;
0>
#1210000
b1 6
b0 D
b10 @
b1 B
1;
1>
#1212000
01
02
0<
b11100 K
#1220000
0;
0>
#1230000
1.
13
1,
04
b0 C
b1 D
1;
1>
#1232000
b11101 K
#1240000
0;
0>
#1250000
b0 7
b1 C
b1001 ?
b1000 E
1;
1>
#1252000
11
12
1<
b11110 K
#1260000
0;
0>
#1270000
0.
03
0,
14
b1 7
b10 6
b1010 ?
b1001 E
b1000 G
b11 @
b10 B
1;
1>
#1272000
b11111 K
#1280000
0;
0>
#1290000
b11 6
b10 D
b1000 F
b1001 G
b100 @
b11 B
1;
1>
#1292000
b11101001111010111111011011010011 -
b11101001111010111111011011010011 9
b11101001111010111111011011010011 J
b0 L
b100000 K
#1300000
0;
0>
#1310000
1.
13
1,
04
b100 6
b10 C
b11 D
b1001 F
b101 @
b100 B
1;
1>
#1317000
b10111100000101001000100001111000 -
b10111100000101001000100001111000 9
b10111100000101001000100001111000 J
b1 L
#1320000
0;
0>
#1330000
b10 7
b101 6
b11 C
b100 D
b1011 ?
b1010 E
b110 @
b101 B
1;
1>
#1337000
b100100100010110100101101001001 -
b100100100010110100101101001001 9
b100100100010110100101101001001 J
b10 L
#1340000
0;
0>
b10111100000101001000100001111000 #
#1350000
b11 7
b110 6
b100 C
b101 D
b1100 ?
b1011 E
b1010 G
b111 @
b110 B
1;
1>
#1357000
b10101000011001010111100101010 -
b10101000011001010111100101010 9
b10101000011001010111100101010 J
b11 L
#1360000
0;
0>
b100100100010110100101101001001 $
#1370000
b100 7
b111 6
b101 C
b110 D
b1101 ?
b1100 E
b1010 F
b1011 G
b1000 @
b111 B
1;
1>
#1377000
0.
03
b11000011001111110011100010000110 -
b11000011001111110011100010000110 9
b11000011001111110011100010000110 J
08
b100 L
#1380000
0;
0>
b10101000011001010111100101010 %
#1390000
b0 6
b110 C
b111 D
b1011 F
b1100 G
b1001 @
b1000 B
1;
1>
#1397000
b11001110001011111111001010011100 -
b11001110001011111111001010011100 9
b11001110001011111111001010011100 J
b101 L
#1400000
0;
0>
#1410000
b10111100000101001000100001111000 0
b1 6
b111 C
b1000 D
b1100 F
b1010 @
b1001 B
1;
1>
#1417000
b10010011011111011011110000100110 -
b10010011011111011011110000100110 9
b10010011011111011011110000100110 J
b110 L
#1420000
0;
0>
#1430000
b100100100010110100101101001001 0
b10 6
b1000 C
b1001 D
b10111100000101001000100001111000 *
b10111100000101001000100001111000 H
b10111100000101001000100001111000 A
b1011 @
b1010 B
1;
1>
#1437000
1.
13
b11010001100010111011010010100011 -
b11010001100010111011010010100011 9
b11010001100010111011010010100011 J
18
b111 L
#1440000
0;
0>
#1450000
b101 7
b10101000011001010111100101010 0
b11 6
b1001 C
b1010 D
b1110 ?
b1101 E
b100100100010110100101101001001 *
b100100100010110100101101001001 H
b100100100010110100101101001001 A
b1100 @
b1011 B
1;
1>
#1457000
b11011001110100101001001010110011 -
b11011001110100101001001010110011 9
b11011001110100101001001010110011 J
b1000 L
#1460000
0;
0>
b11010001100010111011010010100011 &
#1470000
01
02
b110 7
0+
b11010001100010111011010010100011 0
b100 6
b1010 C
b1011 D
b1111 ?
b1110 E
b10101000011001010111100101010 *
b10101000011001010111100101010 H
b10101000011001010111100101010 A
b1101 G
15
b1101 @
b1100 B
1;
1>
#1477000
b100010001010010000110101000100 -
b100010001010010000110101000100 9
b100010001010010000110101000100 J
b1001 L
#1480000
0;
0>
b11011001110100101001001010110011 '
#1490000
11
12
b111 7
1+
b1011 C
b1100 D
b0 ?
b1111 E
05
b1101 F
b1110 G
1;
1>
#1497000
b11100101100110110011011011001011 -
b11100101100110110011011011001011 9
b11100101100110110011011011001011 J
b1010 L
#1500000
0;
0>
b100010001010010000110101000100 (
#1510000
b0 7
b11011001110100101001001010110011 0
b101 6
b1100 C
b1 ?
b0 E
b11010001100010111011010010100011 *
b11010001100010111011010010100011 H
b11010001100010111011010010100011 A
b1110 F
b1111 G
05
b1110 @
b1101 B
1;
1>
#1517000
0.
03
b101101001010001101101101011010 -
b101101001010001101101101011010 9
b101101001010001101101101011010 J
08
b1011 L
#1520000
0;
0>
b11100101100110110011011011001011 )
#1530000
b100010001010010000110101000100 0
b110 6
b1101 D
b11011001110100101001001010110011 *
b11011001110100101001001010110011 H
b11011001110100101001001010110011 A
b1111 F
b0 G
05
b1111 @
b1110 B
1;
1>
#1537000
1.
13
b11110110100000101110001011101101 -
b11110110100000101110001011101101 9
b11110110100000101110001011101101 J
18
b1100 L
#1540000
0;
0>
#1550000
b1 7
b11100101100110110011011011001011 0
b111 6
b1101 C
b1110 D
b10 ?
b1 E
b100010001010010000110101000100 *
b100010001010010000110101000100 H
b100010001010010000110101000100 A
b0 F
05
b0 @
b1111 B
1;
1>
#1557000
0.
03
b10110010100111111011011001100101 -
b10110010100111111011011001100101 9
b10110010100111111011011001100101 J
08
b1101 L
#1560000
0;
0>
b11110110100000101110001011101101 "
#1570000
01
02
0+
b11110110100000101110001011101101 0
b0 6
b1110 C
b1111 D
b11100101100110110011011011001011 *
b11100101100110110011011011001011 H
b11100101100110110011011011001011 A
b1 G
15
b1 @
b0 B
1;
1>
#1577000
1.
13
b11101111101111101001010011011111 -
b11101111101111101001010011011111 9
b11101111101111101001010011011111 J
18
b1110 L
#1580000
0;
0>
#1590000
11
12
b10 7
1+
b1111 C
b0 D
b11 ?
b10 E
05
b1 F
1;
1>
#1597000
b100010001100011111111101000100 -
b100010001100011111111101000100 9
b100010001100011111111101000100 J
b1111 L
#1600000
0;
0>
b11101111101111101001010011011111 #
#1610000
01
02
b11 7
0+
b11101111101111101001010011011111 0
b1 6
b0 C
b100 ?
b11 E
b11110110100000101110001011101101 *
b11110110100000101110001011101101 H
b11110110100000101110001011101101 A
b10 G
15
b10 @
b1 B
1;
1>
#1617000
0.
03
b10101000010010000101100101010 -
b10101000010010000101100101010 9
b10101000010010000101100101010 J
08
b10000 L
#1620000
0;
0>
b100010001100011111111101000100 $
#1630000
11
12
1+
b1 D
05
b10 F
b11 G
1;
1>
#1637000
1.
13
b111011011111100111100001110 -
b111011011111100111100001110 9
b111011011111100111100001110 J
18
b10001 L
#1640000
0;
0>
#1650000
b100 7
b100010001100011111111101000100 0
b10 6
b1 C
b101 ?
b100 E
b11101111101111101001010011011111 *
b11101111101111101001010011011111 H
b11101111101111101001010011011111 A
b11 F
05
b11 @
b10 B
1;
1>
#1657000
0.
03
b11001101010111101011110010011010 -
b11001101010111101011110010011010 9
b11001101010111101011110010011010 J
08
b10010 L
#1660000
0;
0>
b111011011111100111100001110 %
#1670000
01
02
0+
b111011011111100111100001110 0
b11 6
b10 D
b100010001100011111111101000100 *
b100010001100011111111101000100 H
b100010001100011111111101000100 A
b100 G
15
b100 @
b11 B
1;
1>
#1677000
1.
13
b11100001111100010000001011000011 -
b11100001111100010000001011000011 9
b11100001111100010000001011000011 J
18
b10011 L
#1680000
0;
0>
#1690000
11
12
b101 7
1+
b10 C
b11 D
b110 ?
b101 E
05
b100 F
1;
1>
#1697000
0.
03
b100111011110011110100101001110 -
b100111011110011110100101001110 9
b100111011110011110100101001110 J
08
b10100 L
#1700000
0;
0>
b11100001111100010000001011000011 &
#1710000
01
02
0+
b11100001111100010000001011000011 0
b100 6
b11 C
b111011011111100111100001110 *
b111011011111100111100001110 H
b111011011111100111100001110 A
b101 G
15
b101 @
b100 B
1;
1>
#1717000
1.
13
b10000101001100010011010000001010 -
b10000101001100010011010000001010 9
b10000101001100010011010000001010 J
18
b10101 L
#1720000
0;
0>
#1730000
11
12
b110 7
1+
b100 D
b111 ?
b110 E
05
b101 F
1;
1>
#1737000
0.
03
b10011100000011101000101000111000 -
b10011100000011101000101000111000 9
b10011100000011101000101000111000 J
08
b10110 L
#1740000
0;
0>
b10000101001100010011010000001010 '
#1750000
01
02
0+
b10000101001100010011010000001010 0
b101 6
b100 C
b11100001111100010000001011000011 *
b11100001111100010000001011000011 H
b11100001111100010000001011000011 A
b110 G
15
b110 @
b101 B
1;
1>
#1757000
1.
13
b11011100001010111100010010111000 -
b11011100001010111100010010111000 9
b11011100001010111100010010111000 J
18
b10111 L
#1760000
0;
0>
#1770000
11
12
b111 7
1+
b101 D
b1000 ?
b111 E
05
b110 F
1;
1>
#1777000
0.
03
b1001001110001100101110110010011 -
b1001001110001100101110110010011 9
b1001001110001100101110110010011 J
08
b11000 L
#1780000
0;
0>
b11011100001010111100010010111000 (
#1790000
01
02
0+
b11011100001010111100010010111000 0
b110 6
b101 C
b10000101001100010011010000001010 *
b10000101001100010011010000001010 H
b10000101001100010011010000001010 A
b111 G
15
b111 @
b110 B
1;
1>
#1797000
b10101100101101111100101001011001 -
b10101100101101111100101001011001 9
b10101100101101111100101001011001 J
b11001 L
#1800000
0;
0>
#1810000
11
12
1+
b110 D
05
b111 F
1;
1>
#1817000
1.
13
b10100110111111001101111001001101 -
b10100110111111001101111001001101 9
b10100110111111001101111001001101 J
18
b11010 L
#1820000
0;
0>
#1830000
01
02
b0 7
0+
b10100110111111001101111001001101 0
b111 6
b110 C
b1001 ?
b1000 E
b11011100001010111100010010111000 *
b11011100001010111100010010111000 H
b11011100001010111100010010111000 A
15
b1000 @
b111 B
1;
1>
#1837000
b10110110101001000010011001101101 -
b10110110101001000010011001101101 9
b10110110101001000010011001101101 J
b11011 L
#1840000
0;
0>
b10100110111111001101111001001101 )
#1850000
b1 7
b111 D
b1010 ?
b1001 E
b1000 G
1;
1>
#1857000
0.
03
b1100101001110110100100111001010 -
b1100101001110110100100111001010 9
b1100101001110110100100111001010 J
08
b11100 L
#1860000
0;
0>
b10110110101001000010011001101101 "
#1870000
11
12
1+
b111 C
05
b1000 F
b1001 G
1;
1>
#1877000
b1001010100100110111000110010101 -
b1001010100100110111000110010101 9
b1001010100100110111000110010101 J
b11101 L
#1880000
0;
0>
#1890000
b10110110101001000010011001101101 0
b0 6
b10100110111111001101111001001101 *
b10100110111111001101111001001101 H
b10100110111111001101111001001101 A
b1001 F
05
b1001 @
b1000 B
1;
1>
#1897000
b10011101001001101100000100 -
b10011101001001101100000100 9
b10011101001001101100000100 J
b11110 L
#1900000
0;
0>
#1910000
01
02
0+
b11101111101111101001010011011111 0
b1 6
b1000 D
b10110110101001000010011001101101 *
b10110110101001000010011001101101 H
b10110110101001000010011001101101 A
15
b1010 @
b1001 B
1;
1>
#1917000
1.
13
b110100100110000000011101101001 -
b110100100110000000011101101001 9
b110100100110000000011101101001 J
18
b11111 L
#1920000
0;
0>
#1930000
b10 7
b1000 C
b1001 D
b1011 ?
b1010 E
b110100100110000000011101101001 0
1;
1>
#1937000
0<
b0 K
b100000 L
#1940000
0;
0>
b110100100110000000011101101001 #
#1950000
b11 7
b1001 C
b1100 ?
b1011 E
b1010 G
1;
1>
#1952000
b1 K
#1960000
0;
0>
b110100100110000000011101101001 $
#1970000
b100 7
1+
b1101 ?
b1100 E
05
b1010 F
b1011 G
1;
1>
#1972000
b10 K
#1980000
0;
0>
b110100100110000000011101101001 %
#1990000
b101 7
b1110 ?
b1101 E
b1011 F
b1100 G
1;
1>
#1992000
11
12
1<
b11 K
#2000000
0;
0>
b110100100110000000011101101001 &
#2010000
b110 7
b10 6
b1111 ?
b1110 E
b110100100110000000011101101001 *
b110100100110000000011101101001 H
b110100100110000000011101101001 A
b1100 F
b1101 G
b1011 @
b1010 B
1;
1>
#2012000
b100 K
#2020000
0;
0>
b110100100110000000011101101001 '
#2030000
b111 7
b11 6
b1010 D
b0 ?
b1111 E
b1101 F
b1110 G
b1100 @
b1011 B
1;
1>
#2032000
01
02
0<
b101 K
#2040000
0;
0>
b110100100110000000011101101001 (
#2050000
b0 7
b1010 C
b1011 D
b1 ?
b0 E
b1110 F
b1111 G
1;
1>
#2052000
b110 K
#2060000
0;
0>
b110100100110000000011101101001 )
#2070000
b1 7
b1011 C
b10 ?
b1 E
b1111 F
b0 G
1;
1>
#2072000
b111 K
#2080000
0;
0>
b110100100110000000011101101001 "
#2090000
b10 7
b11 ?
b10 E
b0 F
b1 G
1;
1>
#2092000
11
12
1<
b1000 K
#2100000
0;
0>
#2110000
0.
03
0,
14
b11 7
b100 6
b100 ?
b11 E
b1 F
b10 G
b1101 @
b1100 B
1;
1>
#2112000
b1001 K
#2120000
0;
0>
#2130000
b101 6
b1100 D
b10 F
b11 G
b1110 @
b1101 B
1;
1>
#2132000
01
02
0<
b1010 K
#2140000
0;
0>
#2150000
1.
13
1,
04
b1100 C
b1101 D
b11 F
1;
1>
#2152000
b1011 K
#2160000
0;
0>
#2170000
b100 7
b1101 C
b101 ?
b100 E
1;
1>
#2172000
b1100 K
#2180000
0;
0>
#2190000
0.
03
0,
14
b101 7
b110 ?
b101 E
b100 G
1;
1>
#2192000
11
12
1<
b1101 K
#2200000
0;
0>
#2210000
b110 6
b100 F
b101 G
b1111 @
b1110 B
1;
1>
#2212000
01
02
0<
b1110 K
#2220000
0;
0>
#2230000
b1110 D
b101 F
1;
1>
#2232000
b1111 K
#2240000
0;
0>
#2250000
1.
13
1,
04
b1110 C
1;
1>
#2252000
11
12
1<
b10000 K
#2260000
0;
0>
#2270000
0.
03
0,
14
b110 7
b111 6
b111 ?
b110 E
b0 @
b1111 B
1;
1>
#2272000
01
02
0<
b10001 K
#2280000
0;
0>
#2290000
b1111 D
b110 G
1;
1>
#2292000
b10010 K
#2300000
0;
0>
#2310000
1.
13
1,
04
b1111 C
b110 F
1;
1>
#2312000
b10011 K
#2320000
0;
0>
#2330000
0.
03
0,
14
b111 7
b1000 ?
b111 E
1;
1>
#2332000
11
12
1<
b10100 K
#2340000
0;
0>
#2350000
b0 6
b111 G
b1 @
b0 B
1;
1>
#2352000
01
02
0<
b10101 K
#2360000
0;
0>
#2370000
b0 D
b111 F
1;
1>
#2372000
11
12
1<
b10110 K
#2380000
0;
0>
#2390000
1.
13
1,
04
b1 6
b0 C
b10 @
b1 B
1;
1>
#2392000
b10111 K
#2400000
0;
0>
#2410000
0.
03
0,
14
b0 7
b10 6
b1 D
b1001 ?
b1000 E
b11 @
b10 B
1;
1>
#2412000
01
02
0<
b11000 K
#2420000
0;
0>
#2430000
1.
13
1,
04
b1 C
b10 D
b1000 G
1;
1>
#2432000
b11001 K
#2440000
0;
0>
#2450000
b1 7
b10 C
b1010 ?
b1001 E
b1000 F
1;
1>
#2452000
b11010 K
#2460000
0;
0>
#2470000
0.
03
0,
14
b10 7
b1011 ?
b1010 E
b1001 G
1;
1>
#2472000
b11011 K
#2480000
0;
0>
#2490000
b1001 F
b1010 G
1;
1>
#2492000
11
12
1<
b11100 K
#2500000
0;
0>
#2510000
b11 6
b1010 F
b100 @
b11 B
1;
1>
#2512000
01
02
0<
b11101 K
#2520000
0;
0>
#2530000
b11 D
1;
1>
#2532000
b11110 K
#2540000
0;
0>
#2550000
1.
13
1,
04
b11 C
1;
1>
#2552000
b11111 K
#2560000
0;
0>
#2570000
0.
03
0,
14
b11 7
b1100 ?
b1011 E
1;
1>
#2572000
b100000 K
